test/mips_cpu_bus.vcd
$date
	Mon Dec  7 12:08:47 2020
$end
$version
	Icarus Verilog
$end
$timescale
	100ps
$end
$scope module mips_cpu_bus_tb $end
$var wire 32 ! writedata [31:0] $end
$var wire 1 " write $end
$var wire 1 # waitrequest $end
$var wire 32 $ register_v0 [31:0] $end
$var wire 32 % readdata [31:0] $end
$var wire 1 & read $end
$var wire 4 ' byteenable [3:0] $end
$var wire 32 ( address [31:0] $end
$var wire 1 ) active $end
$var reg 1 * clk $end
$var reg 1 + clk_enable $end
$var reg 1 , rst $end
$var integer 32 - counter [31:0] $end
$scope module CPU $end
$var wire 1 * clk $end
$var wire 1 , reset $end
$var wire 32 . writedata [31:0] $end
$var wire 1 " write $end
$var wire 1 # waitrequest $end
$var wire 1 / stall $end
$var wire 32 0 register_v0 [31:0] $end
$var wire 32 1 readdata [31:0] $end
$var wire 1 & read $end
$var wire 32 2 instr_readdata [31:0] $end
$var wire 1 3 instr_read $end
$var wire 32 4 instr_address [31:0] $end
$var wire 32 5 data_writedata [31:0] $end
$var wire 1 6 data_write $end
$var wire 32 7 data_readdata [31:0] $end
$var wire 1 8 data_read $end
$var wire 4 9 data_byteenable [3:0] $end
$var wire 32 : data_address [31:0] $end
$var wire 1 ; clk_enable $end
$var wire 4 < byteenable [3:0] $end
$var wire 32 = address [31:0] $end
$var wire 1 ) active $end
$scope module cpuInst $end
$var wire 1 * clk $end
$var wire 1 ; clk_enable $end
$var wire 1 , reset $end
$var wire 1 > signextend_sel $end
$var wire 5 ? shamt [4:0] $end
$var wire 5 @ rt [4:0] $end
$var wire 5 A rs [4:0] $end
$var wire 32 B register_v0 [31:0] $end
$var wire 1 C reg_write_enable $end
$var wire 32 D reg_write_data [31:0] $end
$var wire 5 E reg_write_addr [4:0] $end
$var wire 2 F reg_data_sel [1:0] $end
$var wire 32 G reg_data_b [31:0] $end
$var wire 32 H reg_data_a [31:0] $end
$var wire 2 I reg_addr_sel [1:0] $end
$var wire 5 J rd [4:0] $end
$var wire 2 K pc_sel [1:0] $end
$var wire 32 L next_pc [31:0] $end
$var wire 2 M lwlr_sel [1:0] $end
$var wire 32 N lwlr_data [31:0] $end
$var wire 32 O link_pc [31:0] $end
$var wire 26 P j_addr [25:0] $end
$var wire 32 Q instr_readdata [31:0] $end
$var wire 16 R imm [15:0] $end
$var wire 32 S extended_imm [31:0] $end
$var wire 32 T extended_data [31:0] $end
$var wire 1 6 data_write $end
$var wire 32 U data_readdata [31:0] $end
$var wire 1 8 data_read $end
$var wire 32 V curr_pc [31:0] $end
$var wire 32 W curr_instr [31:0] $end
$var wire 2 X byte_offset [1:0] $end
$var wire 4 Y byte_enable [3:0] $end
$var wire 1 Z branch_is_true $end
$var wire 3 [ branch_cond [2:0] $end
$var wire 32 \ aluout [31:0] $end
$var wire 1 ] alu_sel $end
$var wire 32 ^ alu_input [31:0] $end
$var wire 5 _ alu_control [4:0] $end
$var wire 1 ` LO_write_enable $end
$var wire 32 a LO_reg2alu [31:0] $end
$var wire 32 b LO_alu2reg [31:0] $end
$var wire 1 c HI_write_enable $end
$var wire 32 d HI_reg2alu [31:0] $end
$var wire 32 e HI_alu2reg [31:0] $end
$var reg 1 f act $end
$var reg 1 ) active $end
$var reg 1 g clken $end
$var reg 32 h data_address [31:0] $end
$var reg 32 i data_writedata [31:0] $end
$var reg 32 j instr_address [31:0] $end
$var reg 1 3 instr_read $end
$scope module ALU_1 $end
$var wire 64 k unsigned_product [63:0] $end
$var wire 64 l signed_product [63:0] $end
$var wire 32 m shift_right_logical [31:0] $end
$var wire 32 n shift_right_arithmetic [31:0] $end
$var wire 32 o shift_left_logical [31:0] $end
$var wire 5 p sa [4:0] $end
$var wire 32 q remainder [31:0] $end
$var wire 32 r quotient [31:0] $end
$var wire 32 s product_lo [31:0] $end
$var wire 32 t product_hi [31:0] $end
$var wire 32 u lwlr_addr [31:0] $end
$var wire 32 v less_than_unsigned [31:0] $end
$var wire 32 w less_than_signed [31:0] $end
$var wire 32 x immediate_zero_extend [31:0] $end
$var wire 2 y byte_offset [1:0] $end
$var wire 3 z branch_cond [2:0] $end
$var wire 32 { bitwise_xor [31:0] $end
$var wire 32 | bitwise_or [31:0] $end
$var wire 32 } bitwise_and [31:0] $end
$var wire 5 ~ alu_control [4:0] $end
$var wire 32 !" adder_result [31:0] $end
$var wire 32 "" adder_B [31:0] $end
$var wire 32 #" LO_input [31:0] $end
$var wire 32 $" HI_input [31:0] $end
$var wire 32 %" B [31:0] $end
$var wire 32 &" A [31:0] $end
$var reg 32 '" HI_output [31:0] $end
$var reg 32 (" LO_output [31:0] $end
$var reg 32 )" alu_result [31:0] $end
$var reg 1 Z branch_cond_true $end
$upscope $end
$scope module ALU_decoder_1 $end
$var wire 5 *" sa [4:0] $end
$var wire 32 +" instr_readdata [31:0] $end
$var wire 6 ," instr_opcode [5:0] $end
$var wire 6 -" func_code [5:0] $end
$var wire 5 ." branch_field [4:0] $end
$var reg 1 c HI_write_enable $end
$var reg 1 ` LO_write_enable $end
$var reg 5 /" alu_control [4:0] $end
$var reg 3 0" branch_cond [2:0] $end
$upscope $end
$scope module decoder_1 $end
$var wire 1 ) active $end
$var wire 1 g clk_enable $end
$var wire 1 Z is_true $end
$var wire 1 , reset $end
$var wire 5 1" rt [4:0] $end
$var wire 5 2" rs [4:0] $end
$var wire 5 3" rd [4:0] $end
$var wire 26 4" j_addr [25:0] $end
$var wire 32 5" instr_readdata [31:0] $end
$var wire 6 6" instr_opcode [5:0] $end
$var wire 16 7" immediate [15:0] $end
$var wire 6 8" funct_code [5:0] $end
$var reg 1 ] alu_sel $end
$var reg 4 9" byte_enable [3:0] $end
$var reg 1 8 data_read $end
$var reg 1 6 data_write $end
$var reg 2 :" lwlr_sel [1:0] $end
$var reg 2 ;" pc_sel [1:0] $end
$var reg 2 <" reg_addr_sel [1:0] $end
$var reg 2 =" reg_data_sel [1:0] $end
$var reg 1 C reg_write_enable $end
$var reg 1 > signextend_sel $end
$upscope $end
$scope module instr_reg_1 $end
$var wire 1 * clk $end
$var wire 1 g clk_enable $end
$var wire 1 , reset $end
$var wire 32 >" instr_readdata [31:0] $end
$var reg 32 ?" curr_instr [31:0] $end
$upscope $end
$scope module lwlr_1 $end
$var wire 2 @" byte_offset [1:0] $end
$var wire 1 A" lwl $end
$var wire 32 B" reg_data_b [31:0] $end
$var wire 32 C" data_readdata [31:0] $end
$var reg 32 D" reg_write_data [31:0] $end
$upscope $end
$scope module mux1_1 $end
$var wire 5 E" rd [4:0] $end
$var wire 5 F" rt [4:0] $end
$var wire 2 G" select [1:0] $end
$var reg 5 H" reg_write_addr [4:0] $end
$upscope $end
$scope module mux2_1 $end
$var wire 1 ] select $end
$var wire 32 I" reg_data_b [31:0] $end
$var wire 32 J" extended_imm [31:0] $end
$var reg 32 K" alu_input [31:0] $end
$upscope $end
$scope module mux3_1 $end
$var wire 32 L" aluout [31:0] $end
$var wire 1 M" islwlr $end
$var wire 32 N" lwlr_data [31:0] $end
$var wire 2 O" select [1:0] $end
$var wire 32 P" signextend_data [31:0] $end
$var wire 32 Q" link_pc [31:0] $end
$var wire 32 R" data_readdata [31:0] $end
$var reg 32 S" reg_write_data [31:0] $end
$upscope $end
$scope module pc_1 $end
$var wire 1 * clk $end
$var wire 1 g clk_enable $end
$var wire 1 , reset $end
$var wire 32 T" new_pc [31:0] $end
$var reg 32 U" pc [31:0] $end
$upscope $end
$scope module pcnext_1 $end
$var wire 1 Z is_true $end
$var wire 26 V" j_addr [25:0] $end
$var wire 32 W" pc [31:0] $end
$var wire 2 X" pc_sel [1:0] $end
$var wire 32 Y" shifted_imm [31:0] $end
$var wire 32 Z" reg_data_a [31:0] $end
$var wire 32 [" pc_increment [31:0] $end
$var wire 32 \" link_pc [31:0] $end
$var wire 32 ]" extended_imm [31:0] $end
$var reg 32 ^" pcnext [31:0] $end
$upscope $end
$scope module reg_file_hi_lo_1 $end
$var wire 32 _" HI_input [31:0] $end
$var wire 1 c HI_write_enable $end
$var wire 32 `" LO_input [31:0] $end
$var wire 1 ` LO_write_enable $end
$var wire 1 * clk $end
$var wire 1 g clk_enable $end
$var wire 1 , reset $end
$var reg 32 a" HI_output [31:0] $end
$var reg 32 b" HI_reg [31:0] $end
$var reg 32 c" LO_output [31:0] $end
$var reg 32 d" LO_reg [31:0] $end
$upscope $end
$scope module register_file_1 $end
$var wire 1 * clk $end
$var wire 1 g clk_enable $end
$var wire 5 e" read_reg1 [4:0] $end
$var wire 5 f" read_reg2 [4:0] $end
$var wire 32 g" register_v0 [31:0] $end
$var wire 1 , reset $end
$var wire 32 h" write_data [31:0] $end
$var wire 1 C write_enable $end
$var wire 5 i" write_reg [4:0] $end
$var reg 32 j" read_data_a [31:0] $end
$var reg 32 k" read_data_b [31:0] $end
$var integer 32 l" index [31:0] $end
$upscope $end
$scope module signextend_1 $end
$var wire 16 m" immediate [15:0] $end
$var wire 1 > select $end
$var wire 1 n" half_msb $end
$var wire 32 o" extended_imm [31:0] $end
$var wire 32 p" data_readdata [31:0] $end
$var wire 1 q" byte_msb $end
$var reg 32 r" extended_data [31:0] $end
$upscope $end
$upscope $end
$scope module memBus $end
$var wire 4 s" byteenable [3:0] $end
$var wire 1 * clk $end
$var wire 32 t" dp_address [31:0] $end
$var wire 32 u" ip_address [31:0] $end
$var wire 1 8 read_dp $end
$var wire 1 3 read_ip $end
$var wire 1 , rst $end
$var wire 1 6 write_dp $end
$var wire 32 v" writedata [31:0] $end
$var wire 32 w" bus_readdata [31:0] $end
$var wire 1 x" bus_busy $end
$var wire 32 y" avl_writedata [31:0] $end
$var wire 1 " avl_write $end
$var wire 1 # avl_waitrequest $end
$var wire 32 z" avl_readdata [31:0] $end
$var wire 1 & avl_read $end
$var wire 4 {" avl_byteenable [3:0] $end
$var wire 32 |" avl_address [31:0] $end
$var reg 32 }" bus_address [31:0] $end
$var reg 4 ~" bus_byteenable [3:0] $end
$var reg 1 !# bus_read $end
$var reg 1 "# bus_write $end
$var reg 32 ## bus_writedata [31:0] $end
$var reg 32 $# dp_data [31:0] $end
$var reg 32 %# ip_data [31:0] $end
$var reg 1 / stall $end
$var reg 3 &# state [2:0] $end
$scope module bus_con $end
$var wire 32 '# address [31:0] $end
$var wire 4 (# byteenable [3:0] $end
$var wire 1 * clk $end
$var wire 1 !# read_select $end
$var wire 1 , rst $end
$var wire 32 )# write_data [31:0] $end
$var wire 1 "# write_select $end
$var wire 1 # avl_waitrequest $end
$var wire 32 *# avl_readdata [31:0] $end
$var reg 32 +# avl_address [31:0] $end
$var reg 4 ,# avl_byteenable [3:0] $end
$var reg 1 & avl_read $end
$var reg 1 " avl_write $end
$var reg 32 -# avl_writedata [31:0] $end
$var reg 1 x" busy $end
$var reg 32 .# read_data [31:0] $end
$var reg 2 /# state [1:0] $end
$var reg 32 0# tmp_addr [31:0] $end
$var reg 4 1# tmp_ben [3:0] $end
$var reg 1 2# tmp_r $end
$var reg 32 3# tmp_rdata [31:0] $end
$var reg 1 4# tmp_w $end
$var reg 32 5# tmp_wdata [31:0] $end
$upscope $end
$upscope $end
$upscope $end
$scope module avlMem $end
$var wire 32 6# address [31:0] $end
$var wire 4 7# byteenable [3:0] $end
$var wire 1 * clk $end
$var wire 1 & read $end
$var wire 1 , rst $end
$var wire 1 " write $end
$var wire 32 8# writedata [31:0] $end
$var reg 32 9# readdata [31:0] $end
$var reg 2 :# state [1:0] $end
$var reg 1 # waitrequest $end
$scope begin $unm_blk_9 $end
$var integer 32 ;# i [31:0] $end
$upscope $end
$upscope $end
$upscope $end
$enddefinitions $end
#0
$dumpvars
b100000000000 ;#
b0 :#
b0 9#
b0 8#
b1111 7#
b10111111110000000000000000000000 6#
bx 5#
04#
b0 3#
02#
b1111 1#
b0 0#
b0 /#
b0 .#
b0 -#
b1111 ,#
b10111111110000000000000000000000 +#
b0 *#
b0 )#
b1111 (#
b10111111110000000000000000000000 '#
b0 &#
b0 %#
b0 $#
b0 ##
0"#
1!#
b1111 ~"
b10111111110000000000000000000000 }"
b10111111110000000000000000000000 |"
b1111 {"
b0 z"
b0 y"
0x"
b0 w"
bx v"
b10111111110000000000000000000000 u"
bx t"
b1111 s"
b0 r"
0q"
b0 p"
b0 o"
0n"
b0 m"
bx l"
bx k"
bx j"
b0 i"
bx h"
bx g"
b0 f"
b0 e"
b0 d"
b0 c"
b0 b"
b0 a"
bx `"
bx _"
b10111111110000000000000000000100 ^"
b0 ]"
b10111111110000000000000000000100 \"
b10111111110000000000000000000100 ["
bx Z"
b0 Y"
b0 X"
b10111111110000000000000000000000 W"
b0 V"
b10111111110000000000000000000000 U"
b10111111110000000000000000000100 T"
bx S"
b0 R"
b10111111110000000000000000000100 Q"
b0 P"
b0 O"
bx N"
0M"
bx L"
bx K"
b0 J"
bx I"
b0 H"
b1 G"
b0 F"
b0 E"
bx D"
b0 C"
bx B"
0A"
bx @"
b0 ?"
b0 >"
b0 ="
b1 <"
b0 ;"
b0 :"
b1111 9"
b0 8"
b0 7"
b0 6"
b0 5"
b0 4"
b0 3"
b0 2"
b0 1"
b0 0"
b1010 /"
b0 ."
b0 -"
b0 ,"
b0 +"
b0 *"
bx )"
bx ("
bx '"
bx &"
bx %"
b0 $"
b0 #"
bx ""
bx !"
b1010 ~
bx }
bx |
bx {
b0 z
bx y
b0xxxxxxxxxxxxxxxx x
b0x w
b0x v
bx00 u
bx t
bx s
bx r
bx q
b0 p
bx o
bx n
bx m
bx l
bx k
b10111111110000000000000000000000 j
bx i
bx h
0g
0f
bx e
b0 d
0c
bx b
b0 a
0`
b1010 _
bx ^
0]
bx \
b0 [
0Z
b1111 Y
bx X
b0 W
b10111111110000000000000000000000 V
b0 U
b0 T
b0 S
b0 R
b0 Q
b0 P
b10111111110000000000000000000100 O
bx N
b0 M
b10111111110000000000000000000100 L
b0 K
b0 J
b1 I
bx H
bx G
b0 F
b0 E
bx D
1C
bx B
b0 A
b0 @
b0 ?
x>
b10111111110000000000000000000000 =
b1111 <
0;
bx :
b1111 9
08
b0 7
06
bx 5
b10111111110000000000000000000000 4
13
b0 2
b0 1
bx 0
1/
b0 .
b0 -
0,
1+
0*
0)
b10111111110000000000000000000000 (
b1111 '
1&
b0 %
bx $
1#
0"
b0 !
$end
#10
1x"
b11 :#
b11 /#
b0 5#
b10111111110000000000000000000000 0#
12#
b11 &#
1*
#20
b1 -
0*
#30
0x"
b111100000011110000000000010001 w"
b111100000011110000000000010001 .#
0#
b1 :#
b111100000011110000000000010001 %
b111100000011110000000000010001 1
b111100000011110000000000010001 z"
b111100000011110000000000010001 *#
b111100000011110000000000010001 9#
1g
1,
1*
#40
b10 -
0*
#50
b0 e
b0 '"
b0 _"
b0 b
b0 ("
b0 `"
b0 N
b0 D"
b0 N"
b0 :
b0 h
b0 t"
b0 t
b0 s
b0 u
b0 X
b0 y
b0 @"
b0 D
b0 S"
b0 h"
b0 \
b0 )"
b0 L"
b0 {
b0 |
b0 }
b0 n
b0 m
b0 o
b0 !"
b0 ""
b0 w
b0 v
b0 x
b0 5
b0 i
b0 v"
1#
b0 w"
b0 .#
b0 k
b0 l
b0 ^
b0 %"
b0 K"
b0 G
b0 B"
b0 I"
b0 k"
b0 H
b0 &"
b0 Z"
b0 j"
1)
b0 :#
b0 %
b0 1
b0 z"
b0 *#
b0 9#
b0 /#
02#
b0 0#
b0 $
b0 0
b0 B
b0 g"
1f
0;
1/
1!#
b10111111110000000000000000000000 }"
b10111111110000000000000000000000 '#
b0 &#
b100000 l"
1*
#60
b11 -
0*
#70
1x"
b11 &#
b11 /#
b10111111110000000000000000000000 0#
12#
b11 :#
0g
1*
0,
#80
b100 -
0*
#90
0x"
b111100000011110000000000010001 w"
b111100000011110000000000010001 .#
0#
b1 :#
b111100000011110000000000010001 %
b111100000011110000000000010001 1
b111100000011110000000000010001 z"
b111100000011110000000000010001 *#
b111100000011110000000000010001 9#
1*
#100
b101 -
0*
#110
0&
1g
0!#
1;
0/
0#
b1 &#
b111100000011110000000000010001 2
b111100000011110000000000010001 Q
b111100000011110000000000010001 >"
b111100000011110000000000010001 %#
b0 /#
b111100000011110000000000010001 3#
b0 :#
1*
#120
b110 -
0*
#130
b10000 u
b1 X
b1 y
b1 @"
b10001 {
b10001 |
b100010000000000000000 D
b100010000000000000000 S"
b100010000000000000000 h"
b100010000000000000000 :
b100010000000000000000 h
b100010000000000000000 t"
b0 q
b0 r
b10001 n
b10001 m
b10001 o
b10001 !"
b10001 ""
b1 w
b1 v
b10001 x
b100010000000000000000 \
b100010000000000000000 )"
b100010000000000000000 L"
0g
b1111 E
b1111 H"
b1111 i"
b10001 ^
b10001 %"
b10001 K"
b1000100 Y"
1#
1&
b10111111110000000000000000000100 (
b10111111110000000000000000000100 =
b10111111110000000000000000000100 |"
b10111111110000000000000000000100 +#
b10111111110000000000000000000100 6#
1!#
b10111111110000000000000000000100 }"
b10111111110000000000000000000100 '#
0;
1/
b10111111110000000000000000001000 L
b10111111110000000000000000001000 T"
b10111111110000000000000000001000 ^"
b0 I
b0 <"
b0 G"
1]
b10100 _
b10100 ~
b10100 /"
b10111111110000000000000000000100 4
b10111111110000000000000000000100 j
b10111111110000000000000000000100 u"
b11110000000000010001 4"
b10001 7"
b10001 8"
b1111 1"
b1111 6"
b1111 ."
b10001 -"
b1111 ,"
b1111 @
b1111 F"
b1111 f"
b10001 S
b10001 J"
b10001 ]"
b10001 o"
b10001 R
b10001 m"
b11110000000000010001 P
b11110000000000010001 V"
02#
b0 &#
b10111111110000000000000000001000 ["
b10111111110000000000000000001000 O
b10111111110000000000000000001000 Q"
b10111111110000000000000000001000 \"
b10111111110000000000000000000100 V
b10111111110000000000000000000100 U"
b10111111110000000000000000000100 W"
b111100000011110000000000010001 W
b111100000011110000000000010001 +"
b111100000011110000000000010001 5"
b111100000011110000000000010001 ?"
1*
#140
b111 -
0*
#150
1x"
b11 &#
b11 /#
b10111111110000000000000000000100 0#
12#
b11 :#
1*
#160
b1000 -
0*
#170
0x"
b110101111100000010001000110011 w"
b110101111100000010001000110011 .#
0#
b1 :#
b110101111100000010001000110011 %
b110101111100000010001000110011 1
b110101111100000010001000110011 z"
b110101111100000010001000110011 *#
b110101111100000010001000110011 9#
1*
#180
b1001 -
0*
#190
0&
1g
0!#
1;
0/
0#
b1 &#
b110101111100000010001000110011 2
b110101111100000010001000110011 Q
b110101111100000010001000110011 >"
b110101111100000010001000110011 %#
b0 /#
b110101111100000010001000110011 3#
b0 :#
1*
#200
b1010 -
0*
#210
b10 e
b10 '"
b10 _"
b10 t
b11 X
b11 y
b11 @"
b1000101011000110000000000000000 b
b1000101011000110000000000000000 ("
b1000101011000110000000000000000 `"
b100010010001000110011 :
b100010010001000110011 h
b100010010001000110011 t"
b1000101011000110000000000000000 s
b100010010001000110011 {
b10111111110000000000000000001000 (
b10111111110000000000000000001000 =
b10111111110000000000000000001000 |"
b10111111110000000000000000001000 +#
b10111111110000000000000000001000 6#
b100010110011 q
b10001000110011 ""
b10001000110011 x
b100010010001000110011 D
b100010010001000110011 S"
b100010010001000110011 h"
b100010010001000110011 |
b100010010001000110011 \
b100010010001000110011 )"
b100010010001000110011 L"
b1111111 r
b0 n
b0 m
b0 o
b100010010001000110000 u
b0 w
b0 v
b1000100011001100 Y"
b10111111110000000000000000001000 }"
b10111111110000000000000000001000 '#
b10000 E
b10000 H"
b10000 i"
b10001000110011 ^
b10001000110011 %"
b10001000110011 K"
b101 _
b101 ~
b101 /"
b1001000101011000110000000000000000 k
b1001000101011000110000000000000000 l
b100010010001000110011 !"
b100010000000000000000 H
b100010000000000000000 &"
b100010000000000000000 Z"
b100010000000000000000 j"
b0 5
b0 i
b0 v"
b10111111110000000000000000001000 4
b10111111110000000000000000001000 j
b10111111110000000000000000001000 u"
0g
b1111100000010001000110011 4"
b10001000110011 7"
b110011 8"
b100 3"
b10000 1"
b1111 2"
b1101 6"
b1000 ?
b1000 p
b1000 *"
b10000 ."
b110011 -"
b1101 ,"
b100 J
b100 E"
b10000 @
b10000 F"
b10000 f"
b1111 A
b1111 e"
b10001000110011 S
b10001000110011 J"
b10001000110011 ]"
b10001000110011 o"
b10001000110011 R
b10001000110011 m"
b1111100000010001000110011 P
b1111100000010001000110011 V"
1#
1&
1!#
0;
1/
b10111111110000000000000000001100 L
b10111111110000000000000000001100 T"
b10111111110000000000000000001100 ^"
b0 G
b0 B"
b0 I"
b0 k"
02#
b0 &#
b10111111110000000000000000001100 ["
b10111111110000000000000000001100 O
b10111111110000000000000000001100 Q"
b10111111110000000000000000001100 \"
b10111111110000000000000000001000 V
b10111111110000000000000000001000 U"
b10111111110000000000000000001000 W"
b110101111100000010001000110011 W
b110101111100000010001000110011 +"
b110101111100000010001000110011 5"
b110101111100000010001000110011 ?"
1*
#220
b1011 -
0*
#230
1x"
b11 &#
b11 /#
b10111111110000000000000000001000 0#
12#
b11 :#
1*
#240
b1100 -
0*
#250
0x"
b111100000100011010101010111011 w"
b111100000100011010101010111011 .#
0#
b1 :#
b111100000100011010101010111011 %
b111100000100011010101010111011 1
b111100000100011010101010111011 z"
b111100000100011010101010111011 *#
b111100000100011010101010111011 9#
1*
#260
b1101 -
0*
#270
0&
1g
0!#
1;
0/
0#
b1 &#
b111100000100011010101010111011 2
b111100000100011010101010111011 Q
b111100000100011010101010111011 >"
b111100000100011010101010111011 %#
b0 /#
b111100000100011010101010111011 3#
b0 :#
1*
#280
b1110 -
0*
#290
b0 e
b0 '"
b0 _"
b0 b
b0 ("
b0 `"
b10101010101110110000000000000000 :
b10101010101110110000000000000000 h
b10101010101110110000000000000000 t"
b0 t
b0 s
b11111111111111111010101010111011 {
b10111111110000000000000000001100 (
b10111111110000000000000000001100 =
b10111111110000000000000000001100 |"
b10111111110000000000000000001100 +#
b10111111110000000000000000001100 6#
b11111111111111111010101010111011 ""
b1010101010111011 x
b10101010101110110000000000000000 D
b10101010101110110000000000000000 S"
b10101010101110110000000000000000 h"
b11111111111111111010101010111011 |
b10101010101110110000000000000000 \
b10101010101110110000000000000000 )"
b10101010101110110000000000000000 L"
b0 q
b0 r
b11111111111111111010101010111011 n
b11111111111111111010101010111011 m
b11111111111111111010101010111011 o
b11111111111111111010101010111000 u
b0 w
b1 v
b11111111111111101010101011101100 Y"
b10111111110000000000000000001100 }"
b10111111110000000000000000001100 '#
b10001 E
b10001 H"
b10001 i"
b11111111111111111010101010111011 ^
b11111111111111111010101010111011 %"
b11111111111111111010101010111011 K"
b10100 _
b10100 ~
b10100 /"
b0 k
b0 l
b11111111111111111010101010111011 !"
b0 H
b0 &"
b0 Z"
b0 j"
b0 N
b0 D"
b0 N"
b0 5
b0 i
b0 v"
b10111111110000000000000000001100 4
b10111111110000000000000000001100 j
b10111111110000000000000000001100 u"
0g
b100011010101010111011 4"
b1010101010111011 7"
b111011 8"
b10101 3"
b10001 1"
b0 2"
b1111 6"
b1010 ?
b1010 p
b1010 *"
b10001 ."
b111011 -"
b1111 ,"
b10101 J
b10101 E"
b10001 @
b10001 F"
b10001 f"
b0 A
b0 e"
b11111111111111111010101010111011 S
b11111111111111111010101010111011 J"
b11111111111111111010101010111011 ]"
b11111111111111111010101010111011 o"
b1010101010111011 R
b1010101010111011 m"
b100011010101010111011 P
b100011010101010111011 V"
1#
1&
1!#
0;
1/
b10111111110000000000000000010000 L
b10111111110000000000000000010000 T"
b10111111110000000000000000010000 ^"
b0 G
b0 B"
b0 I"
b0 k"
02#
b0 &#
b10111111110000000000000000010000 ["
b10111111110000000000000000010000 O
b10111111110000000000000000010000 Q"
b10111111110000000000000000010000 \"
b10111111110000000000000000001100 V
b10111111110000000000000000001100 U"
b10111111110000000000000000001100 W"
b111100000100011010101010111011 W
b111100000100011010101010111011 +"
b111100000100011010101010111011 5"
b111100000100011010101010111011 ?"
1*
#300
b1111 -
0*
#310
1x"
b11 &#
b11 /#
b10111111110000000000000000001100 0#
12#
b11 :#
1*
#320
b10000 -
0*
#330
0x"
b110110001000101100110011011101 w"
b110110001000101100110011011101 .#
0#
b1 :#
b110110001000101100110011011101 %
b110110001000101100110011011101 1
b110110001000101100110011011101 z"
b110110001000101100110011011101 *#
b110110001000101100110011011101 9#
1*
#340
b10001 -
0*
#350
0&
1g
0!#
1;
0/
0#
b1 &#
b110110001000101100110011011101 2
b110110001000101100110011011101 Q
b110110001000101100110011011101 >"
b110110001000101100110011011101 %#
b0 /#
b110110001000101100110011011101 3#
b0 :#
1*
#360
b10010 -
0*
#370
b1 X
b1 y
b1 @"
b10101010101110101101110111100101 e
b10101010101110101101110111100101 '"
b10101010101110101101110111100101 _"
b1100111011011110000000000000000 b
b1100111011011110000000000000000 ("
b1100111011011110000000000000000 `"
b10101010101110111100110011011101 :
b10101010101110111100110011011101 h
b10101010101110111100110011011101 t"
b10101010101110101101110111100101 t
b1100111011011110000000000000000 s
b1010101010001001100110011011101 {
b10101010101110110000000000000000 }
b10111111110000000000000000010000 (
b10111111110000000000000000010000 =
b10111111110000000000000000010000 |"
b10111111110000000000000000010000 +#
b10111111110000000000000000010000 6#
b11111111111111111100110011011101 ""
b1100110011011101 x
b10101010101110111100110011011101 D
b10101010101110111100110011011101 S"
b10101010101110111100110011011101 h"
b10101010101110111100110011011101 |
b10101010101110111100110011011101 \
b10101010101110111100110011011101 )"
b10101010101110111100110011011101 L"
b10101010101110110000000000000000 q
b11111111111111111111111111111111 n
b0 m
b0 o
b10101010101110101100110011011100 u
b1 w
b11111111111111110011001101110100 Y"
b10111111110000000000000000010000 }"
b10111111110000000000000000010000 '#
b10 E
b10 H"
b10 i"
b11111111111111111100110011011101 ^
b11111111111111111100110011011101 %"
b11111111111111111100110011011101 K"
b101 _
b101 ~
b101 /"
b1010101010111010110111011110010101100111011011110000000000000000 k
b100010000100001100111011011110000000000000000 l
b10101010101110101100110011011101 !"
b10101010101110110000000000000000 H
b10101010101110110000000000000000 &"
b10101010101110110000000000000000 Z"
b10101010101110110000000000000000 j"
b0 N
b0 D"
b0 N"
b0 5
b0 i
b0 v"
b10111111110000000000000000010000 4
b10111111110000000000000000010000 j
b10111111110000000000000000010000 u"
0g
b10001000101100110011011101 4"
b1100110011011101 7"
b11101 8"
b11001 3"
b10 1"
b10001 2"
b1101 6"
b10011 ?
b10011 p
b10011 *"
b10 ."
b11101 -"
b1101 ,"
b11001 J
b11001 E"
b10 @
b10 F"
b10 f"
b10001 A
b10001 e"
b11111111111111111100110011011101 S
b11111111111111111100110011011101 J"
b11111111111111111100110011011101 ]"
b11111111111111111100110011011101 o"
b1100110011011101 R
b1100110011011101 m"
b10001000101100110011011101 P
b10001000101100110011011101 V"
1#
1&
1!#
0;
1/
b10111111110000000000000000010100 L
b10111111110000000000000000010100 T"
b10111111110000000000000000010100 ^"
b0 G
b0 B"
b0 I"
b0 k"
02#
b0 &#
b10111111110000000000000000010100 ["
b10111111110000000000000000010100 O
b10111111110000000000000000010100 Q"
b10111111110000000000000000010100 \"
b10111111110000000000000000010000 V
b10111111110000000000000000010000 U"
b10111111110000000000000000010000 W"
b110110001000101100110011011101 W
b110110001000101100110011011101 +"
b110110001000101100110011011101 5"
b110110001000101100110011011101 ?"
1*
#380
b10011 -
0*
#390
1x"
b11 &#
b11 /#
b10111111110000000000000000010000 0#
12#
b11 :#
1*
#400
b10100 -
0*
#410
0x"
b100100000001010000011000000100 w"
b100100000001010000011000000100 .#
0#
b1 :#
b100100000001010000011000000100 %
b100100000001010000011000000100 1
b100100000001010000011000000100 z"
b100100000001010000011000000100 *#
b100100000001010000011000000100 9#
1*
#420
b10101 -
0*
#430
0&
1g
0!#
1;
0/
0#
b1 &#
b100100000001010000011000000100 2
b100100000001010000011000000100 Q
b100100000001010000011000000100 >"
b100100000001010000011000000100 %#
b0 /#
b100100000001010000011000000100 3#
b0 :#
1*
#440
b10110 -
0*
